…
Downloading [specific versions of COVerAge-DB datasets](https://osf.io/9dsfk/?show=revision) is possible:
```r
download_covid_version(data = "inputDB", version = 1, return = "tibble")
```
```
Downloading inputDB_v1.zip (timeout set to 60)
trying URL 'https://osf.io/9dsfk/download?version=1'
Content type 'application/octet-stream' length 10287585 bytes (9.8 MB)
==================================================
downloaded 9.8 MB

Reading /tmp/RtmpuvKg50/Data/inputDB.csv
# A tibble: 2,494,617 x 11
   Country   Region Code    Date   Sex   Age   AgeInt Metric Measure Value Short
   <chr>     <chr>  <chr>   <chr>  <chr> <chr>  <int> <chr>  <chr>   <dbl> <chr>
 1 Afghanis… All    AF01.0… 01.07… b     0         10 Count  Cases     169 AF
 2 Afghanis… All    AF01.0… 01.07… b     10        10 Count  Cases    1525 AF
 3 Afghanis… All    AF01.0… 01.07… b     20        10 Count  Cases    7948 AF
 4 Afghanis… All    AF01.0… 01.07… b     30        10 Count  Cases    7592 AF
 5 Afghanis… All    AF01.0… 01.07… b     40        10 Count  Cases    5362 AF
 6 Afghanis… All    AF01.0… 01.07… b     50        10 Count  Cases    3747 AF
 7 Afghanis… All    AF01.0… 01.07… b     60        10 Count  Cases    2267 AF
 8 Afghanis… All    AF01.0… 01.07… b     70        10 Count  Cases     840 AF
 9 Afghanis… All    AF01.0… 01.07… b     80        25 Count  Cases     301 AF
10 Afghanis… All    AF01.0… 01.07… b     TOT       NA Count  Cases   29751 AF
# … with 2,494,607 more rows
```
…
If memory efficiency is not an issue, `subset_covid()` is the in-memory version:
```r
df <- read_covid("Output_10.zip", "Output_10", return = "tibble")
subset_covid(df, Country = "Sweden")
```
```
Reading /tmp/Rtmptv6DoX/Data/Output_10.csv
# A tibble: 2,255 x 10
   Country Region Code           Date     Sex     Age AgeInt  Cases Deaths Tests
   <chr>   <chr>  <chr>          <chr>    <chr> <int>  <int>  <dbl>  <dbl> <dbl>
 1 Sweden  All    SE_ECDC_01.11… 01.11.2… b         0     10  1046     10     NA
 2 Sweden  All    SE_ECDC_01.11… 01.11.2… b        10     10  8818      0     NA
 3 Sweden  All    SE_ECDC_01.11… 01.11.2… b        20     10 24930     10     NA
 4 Sweden  All    SE_ECDC_01.11… 01.11.2… b        30     10 21989     17     NA
 5 Sweden  All    SE_ECDC_01.11… 01.11.2… b        40     10 22242     46     NA
 6 Sweden  All    SE_ECDC_01.11… 01.11.2… b        50     10 22537    165     NA
 7 Sweden  All    SE_ECDC_01.11… 01.11.2… b        60     10 12418    414     NA
 8 Sweden  All    SE_ECDC_01.11… 01.11.2… b        70     10  7519   1279     NA
 9 Sweden  All    SE_ECDC_01.11… 01.11.2… b        80     10  6164.  2092.    NA
10 Sweden  All    SE_ECDC_01.11… 01.11.2… b        90     10  4914.  1794.    NA
# … with 2,245 more rows
```
…
